
		       Tally Sheet for the votes cast. 
 
   The format is:
       "V: vote 		HMAC_SHA256_HEX"
 You may locate the HMAC_SHA256_HEX corresponding to a debian login ID,
 given the associated secret token returned with the ack,
 by running the sha256 hmac function. For example, for login ID srivasta, and
 the secret token 0123456789ABCDE, the following invocation works:
   % echo -n "srivasta" | openssl dgst -hmac 0123456789ABCDE -sha256
 The vote block represents the ranking given to each of the 
 candidates by the voter. 
 -=-=-=-=-=-=-=-=-=-=-=-=-=-=-=-=-=-=-=-=-=-=-=-=-=-=-=-=-=-=-=-=-=-=
 -=-=-=-=-=-=-=-=-=-=-=-=-=-=-=-=-=-=-=-=-=-=-=-=-=-=-=-=-=-=-=-=-=-=

     Option 1---->: Andreas Tille
   /  Option 2--->: Sruthi Chandran
   |/  Option 3-->: None of the above
   ||/
V: --1 		00c6dac15e1706f3093d4831a948b00fb5c60751f36e6f828010ac96e360583c
V: 123 		011cae25c8c84a726132d61bd7c78a3a70743cc40ae76f2566aed485dab6e1a3
V: 11- 		01348c917196bada004c749119c46351bfd6dd30dd8adedcfb533d8dece96c41
V: 132 		01bd035f96bc9f87adb2637e5160dd71a1507bd85fec62e61e9ccf83f028b175
V: 123 		0329889a46a7fc43a40ac0f20b559d7cb8585bcbac4ac3f1839f917095b5d44d
V: 12- 		03b418be7b11faa0b8661f250362981dc33a56bab2af78891311b13f6e95f2b8
V: 312 		0500d1b2cd358c1f7f37f09ed1531b79ac3b291463ba6575876d1b59f48cd962
V: 123 		0556731bdfac4dcb84489fbfa23324e174c2770b9f7c3870676414d302b5a69a
V: 12- 		0573b6e85912ce2f4c93e3c6dbb823401691374117553b90561a0db424e825c8
V: 132 		05dfe925c177fc714710bc40fefbd00fbb0a5f81d069fb35fb2e7f8a2d9d53ff
V: 123 		06a059988239c3d2dc410f8b877cb8a632c3edee2e4b20318eb931adcc4777d0
V: 123 		06deb9e85687aca3e57336806684231ba0902937d8c1a3df909c4a2e709cc3a2
V: 123 		07cf40dac54f1d6253dfba0e972f0e19edcd149bb29e4fb4af5c1367d370df73
V: 1-2 		082470ce746eeeff28f2b60cadd3e68c7aacc399dc58474a9311df125864d9c8
V: 123 		08ae983ef297dcb96974ad5ba2e12ecb3e00cde8b7f9d342e4872e613a64558d
V: 213 		08d2df07973b5d579332b7522a2db57d9b07b7f688e65d056757d224568e8db3
V: 21- 		0917a03114ebb3ed97fff8433969abe700fcd96caaad4dfba1cf609c6308d153
V: 123 		092a8138fd3fc3154258a61b420ec2a8749637e66f6b8a2064e45c862e8e234c
V: 213 		0af44e97a403f54c95e9c7accae178067ead66bc666131c766ceda2a5ee5bd7d
V: 132 		0ba69af732fdaf1bfd7509eae3eeed9753c26cb8aec9f272c5f58fedf3ce6c7b
V: -12 		0bf804c19a28207d2e28c53cdee6fb4518a2eac6851c9d22ca923e5d0007e1dc
V: 1-- 		0c45c20f7b9d9fe1fbd31410cdcd54a3582bd1fd53d02fe10e7a6df47c4ed48e
V: 12- 		0c7612149eccdc9cf157bfb6ca7f884399ccb643b08f89ed4d81a8578317b919
V: 213 		0e98aaa29e153948c6909837698765ebbd039bd6d8223c44b8b82e7ce62d5330
V: 312 		1025e14a718119efc02cbcc875380ee5aa693587408f2820fff1b4d0f0e1d336
V: 12- 		106ed12603f4bb6a4973fcfcdfd2312edbb733a05a3a89ddc20da0df5c63e7d6
V: 123 		142c4402d2076bbbbf5acb49b9f53b41ef29bbc7f1eba2ac89e0b61efb91cfc3
V: 21- 		146617a80fa3a8281a195865f63ff81360898d97bf7b7ea72097bb4c2536b8e4
V: 122 		14852b9049d41e854ab7fc7332af0c21d19a24089558537c6297faabf94176c3
V: 213 		14de7f37e194c903795afee54be3a6a39ca371a76280f7c62e0392982f140357
V: 123 		151c6d5f27e495e569fb13a7e9bb85432e36a3047d5a6c04556798543bbb61f9
V: 123 		153a769651ec3f86c8e70fee4ec7cc4da35f359ae67082a1ddac7776ef85981c
V: -12 		16ce131b79d8378d1f15835d19ad46bbae2d2930328fea2b8ae41fdd6083edec
V: 1-- 		1781e7fd73ee9f99a7e4977ace83c017c290f9e6ea1503b49d4d2cd2976e0521
V: 223 		1896408d4bb0cf39928f743f93c0e325a6ad74328220f74fccb91f9cf6a04368
V: 123 		18d82bc4c966f03b8d019f85e024d4756b5bd5b1f9f77ca3e89b6f9ecbf4f37a
V: 123 		1951f769c6e534c142f20ec88decae7cb534530ec8c71a7a2b99035e5d718d3d
V: 12- 		1a9800147dc7aeb4b2fbc34d921d9855e7f36355ca20ffc1558848fb94955411
V: 213 		1bc70401dd4412e85eabec31e23ff655eefa93c540da40bb0af8ef102fe5e7b5
V: 213 		1c9579c5f34d9566deb652db589e768aeedecd9698ee628fca8a3c40f88c818b
V: -12 		1de48309cd39ae6cac096a27060b5e1f1456e774f42e0c403a531fe64ac2c95e
V: 132 		1eda7a2a5ec4d0174aa00fe55f686872f45b52e4a4332a8b7a0bb537a183f172
V: 12- 		20fbc7353e039a9f7c3c5392c19b46090319ab0d1451172b42c067955290eea8
V: 21- 		218901bf9ea6050fe9a43ddaafd20f4dd37850465e18ddd6db9d4951b574fc22
V: 213 		21984d9c2f5a46fb27aa8a3981df459a7984772ecd449d2c36b64b1a82c7538e
V: 213 		2231496aff7c4bf46022959e71b5de5b2841351e9840dadfa98ac6ebb4695c2e
V: 213 		224ab72fef8ac55b062ec42bafef1c20ad8d5a185600eaa5c69e538dca4498e9
V: 123 		2554be5257809b14cb19cdd298bc1d7760ccd44671d9fe2844229f99b5ae3f25
V: 1-- 		2561b1aba3b341c8e487695a17933f1a7a396ac9696396706658539e36a75933
V: 312 		256df0998281c8d96b1e96cfbeac61d78603aa098941ff31de866afa92316b2c
V: 21- 		276d8e0b833af4cd500f784c318f8376d630f640e253e565eab090e463743cae
V: 213 		281fb9be35c1773a9f497009cf75fe8a49542d5cc10916ffc2aa1cf20500329c
V: 312 		2825f51501d3b3111c54f8a93e0b0bf2f20430eaf8fff65728082cfe3a048c66
V: 312 		2851c45acb580722829eef4a1053c475fec04b4905ce016aa8d6753565e21736
V: 123 		289e1f3fb19e7bd8d6a762d547d106e84b9b765ca858c3ee654fb1b2914906c8
V: 123 		28c925377dc6b7f212b4b6a2ea8666379508c531d650e34c01c9db0264015c5b
V: 132 		294ee0d5faa33a5b0d127e500b5f2dad6191aa95b1f8e761f5fbe78ba7fc433f
V: 213 		2a524e06d23d101b883085f5994730af4b17423e016630537fbf16ccbc54e28d
V: 12- 		2a582263e439f34a82ef691b843f5a9739657fc30b9d6bfbe4eac8ac7c5dbfc9
V: 321 		2b3fe77619e8bdaf5f2a63f691b93f59474f3856a1cffa9b98b9aeae5be38984
V: 1-3 		2c1ebaab3ed96e71941b8320b2d2f8bd053649f89a5f8c0248d89e0c2c43fe60
V: 123 		2cedac215e87812c5406db52eca841ff018fd91169811f3f82ef414a32967c68
V: 213 		2cf0db7308f4a02ec48f1f96d2c53e4b44479613086605aa961998f4af8968a0
V: 132 		2e44ad514fe9a1582ead55df6ff2d8937fb1df9d7bc6ba90a1898db65c91517e
V: 21- 		2ecbad4984c163175b3ad318e12a67a565b6fee141ce0f85eb1bba528ce4b087
V: 123 		2f7b0ef82f636c976f695c7bf795ee3b4b5f7bcf947ea1ebc9ecd47cd2ca3c09
V: 123 		30e1af9dcc7e3ab75bce65337851ff8276169ecae51be429d434375532371fe2
V: 312 		3114c8cd0b69ba292aa5df29016b7ec033a3a949788784cc0f0a8de4639d8973
V: 123 		31838fcd330ead00f57be5ec3d88993639a237a057f35f1e4a42c614446d6007
V: 132 		33f5d7d394dcb840c5a9630db547850dbf495060980c2c37ef4248a2f9b342d4
V: 132 		346678ab55dd5ce91c2fcf4b3228bfc96584f08bf46987e538d4bdd230075609
V: 21- 		348d86f1b7546f5fce915eace88bf3140366fc44fb21f0f67ba7c409a505d333
V: 231 		3492b7b46a9e8078e6ed2f8296ab20a1666d146884a2184ebff5f1090e9bdcf8
V: 213 		35389239ed1c2933cc456cbcc46c424dbfc0c01097e12a30dc148b502db07f3b
V: 123 		35728285fc09e8fc46816d1088e221b509fa28d4e915fe47ee248af263f554f3
V: 123 		36493eb95cea269fda162f8f6f407febff7d61627703621c3142b70f7d82d7ec
V: 231 		366ffa9dca89ef8a3b5c69cee67560172b23571a6c90d547d56bbce0df228f8a
V: 231 		373af549cf69860e206246e21af959b2e4c9dbce52d81792d406cde488690ee7
V: 1-- 		37c963b8b8a1c74fe908a761b8992112e89ae799243f8b9064ac90849415d46d
V: 21- 		384e7e883bd2fe521f0f06803992e0d8f9cde9f2b5b406524ebca57ba1b3f45b
V: 213 		385b508e64eae191027a7e385e557e14de2b158c7261afea47e53ce6a3c327fe
V: 312 		394e1ec90d5c0534b41b287409afeff3e56cd854930aef369524ac6a229de73a
V: 213 		39990ab7bc80ad1f35268a71cf96e4b5f59055704040e783b2af2083df9472ae
V: 132 		39a56423781e1ae41fe26334d6ba44293cbf1f31d0dae663e1d099a322cfa06a
V: 132 		3a9d0d55260a5dfe8d02d17fcf56e0a239316fc781395ded648eae262de73b0a
V: 123 		3b11a470a2718bd0fe80d8febbd6853a763464fcc4b2127efa5e9290e2d4c100
V: 123 		3c703ebb921e75e1ec4711850d4e02e1ea713748566f79251ab8893c0e138caa
V: 12- 		3ffb0befd91797ff91b318bc2e79b88b6fbc883f133d052a86c128e68b85c3d6
V: 213 		403cb246c82f77fe8379c7ee9dd805bad25f69e4c1d97c055ad40e5abdc1ec21
V: 12- 		403fc706f87c5e2dd4f266a407a1fed7dea953c096e19038b8c7319dfacaecdc
V: 123 		4186f62d3b18b7715cc736376b81a594029be66f13a533242b1b12e2942fe99d
V: 321 		427f25ba14a2c9dcd3e1dec367b8717dbc2d5a14102b100eae85601c78e8a6cf
V: 312 		42ca7c5a25cb7d7b236948faaf35ea3866d6e7df09968c18faad5319f540fd5e
V: 21- 		45a050c859e1f11f97786c0275d44a9930614eee4498b16ab0e3e2b6d3bb0885
V: --1 		46477c62b1e1ca8faa6bec7670f5f7a86832a6ea69b33f3d129e56992ab5ca12
V: 132 		46502430d89374f8cdb7b53c8075b67e4a35a000c136221736d4451ea3751052
V: 213 		46f2467602e4282199cd600bddaa3bce6142c25b24800349db96e80967153fd3
V: 213 		48b0fa7d5c0997adf2b2a0ddcfe93f9e754093fa6cc0b0d5c1dda02d212da228
V: 21- 		491931ed5a15a83b74295f8abe0cb56687fe5cf2e2a98e9f7de171d4b63ce797
V: 213 		495ebef7c33746143b4e29d2f9ac9e393394a070baf0463ffc1a3ddfe80a760a
V: 123 		4bc630a25aa7ea56bac6ed773e98b7bfcd2fac7f8f5d3a2532ec5e8278600322
V: 12- 		4c9a3b4a4ac9c6b5772d41636231f7546183549cad9040f318a9b1cb174d81af
V: 123 		4d7853f74e9244c2abcee3f70c2d4af7d1989cf8b61ede311d3448c9a1a47b8f
V: 132 		4dd44c7132c06bea2121536184dbdb8300e02e42f98d604402bc3340631787ec
V: 123 		4e05712fd0b54c9b828707448377c153d13d7716a8d1c0eda028f3ad54b4f583
V: 132 		4e6feaa89cdbfc941b4e9a72312957da7539179efdef6da52bf5022287f0917b
V: 213 		4efdb6af7613571ab7085402bc7c1ac4299e6c24634d195e987a0e35a30d2b0f
V: 113 		4f051f018a6fbc017838c788ee8e5c79aa2fdae796f7377bcfbb18e29a76269b
V: 12- 		4f6d27d4330d7c7e0152c30389b85958b6e466b02044f6e27c61b94afa401a07
V: 123 		5330b379f250a148bf9c25dabaccb0217a44a99446f56fb953903633820cc55d
V: 12- 		5413f24df66d43815b48a94dcfc79684ce5d1c36ba3ed0faa63acef7ffe2aef4
V: 123 		54b90200e866641e3bd8668ff8d51b3f88bf49e0fa8e7f469f6d5f1e7e922d5a
V: 123 		54b94075cd2b5cd763391c7342a1869534edbe4b8258f53481478fd290b0cc59
V: 213 		563b8f897faa74d78dd6e41ce353b911aef53c0f4ed9c9a9e9f1064c8191c942
V: 1-- 		578c3fbf8afa6a5b85d0aae3b825c514f60ff02c29407d25e31b849ba767d574
V: 123 		5895dc6c1aace116836ba71538245639ad8d61df72ebc1a3c7e2ba1cdfcc9202
V: 21- 		58fdcbb05392c8145d9e99b433eb071181647d19b9dfc8ebc05915cf446bf16c
V: 1-- 		5969c2f2402cadfd65af9ad3618b8ad121aed4447b333a63287571fc0441110f
V: 123 		59ca669572a56f1adb21f8cca98f33bc31be3b14ae7a21d38217f33d576b2aaf
V: 123 		5a1b42a1e3c697f184a3050e4393d02be04e599c81499d45c8df7bbe6df0cd62
V: 123 		5b6e3bae7abefc4a8cbf8943802073e7cc76bbbaffaa8f8e2cfb9875cac8a544
V: 1-- 		5b84ecba8c7590140a55d61723506308c9e910733935fc6f70fbd4cc52955a51
V: 312 		5c977c182e09b6076af9e748c52805c0c756c10b6e9040ad7e45b387d177d3bc
V: 231 		5d0a7ca9af8adc4f2ed4300e6efa3634abf6dc166a6e001bf1661b6250017009
V: 21- 		5d17c201b5f6895f6ca297a4ec0ee1643f26bdea44dd502c351c139ad58304e8
V: 123 		5d1f54f1fe294127bd44b5a75ba3e7c4eda38e6c9b5c5c6cfd2377dd21411aa3
V: 312 		5d32e5395615e4a804dc5bc081b005add3b8117730266cef24a1ae20890486a6
V: 123 		5e0383ba31371bf6cf42099180d1024df5202fbae454162dfc52a4102b3e0abe
V: 123 		5f19d0c19e52d487363657916aa89529d28525e51b9627914487a5d1d16a6296
V: 213 		5f4de128c43fe4ed0dab493a4cb4e775346a081f88a8b5aa81dc3210c1a4efdc
V: 123 		5fa225957d31edfcf78bd6e3645c113dd3d98f21820ab9801700672efdbaeae8
V: 112 		60909099689bb7fc314aa8c270f0e69e81be0eba4fa630743738d036eeae01de
V: 123 		61a9760ffcf564710cfd3fd323cf61265f2b62d42101b1c2f75c7784ee4218a8
V: -12 		624ccc70d4a7e258bb1514ef479d1b132a95bbb55f7e138a943539572a96d112
V: 111 		628f2560ee5657d42bbe3fd469c80172d04234aa84f5ad4425c2145786f8f04b
V: 12- 		6370d6c2b3cd866112890659b5bf35a654bbe772439e16a8694fa1ecd2ec2135
V: 231 		6385175a8995196f5abd262aee83de589dabe6950b2a6b79699eacbd6d1c9f14
V: 213 		63f6106747a3ec3b8383ce63ecf72487e5f91471449661ad233345693b744c71
V: 112 		6466813b6f98f329682329e3b468910e037f959c3f8ff9b3700ae8b7620c1a9e
V: 1-2 		64b14800012501583a2c7c8db9efb007f8d1591bb3850f3b0f84f2f71b90d0de
V: 221 		657ae831d9771eba2bf2fe75eec3d9ee005f712d5bfbb6ba9dce39b09bd3d299
V: 123 		6590437ac3c858e4196108ff5dbf57398b668cca48fc6b82fe2623b3caeb8376
V: 21- 		6650513e5ee8838ec3071d11d43940cb914eb00e838f6cb95be5f4c91820bc8d
V: 123 		67c62d5d9280d37b78392b84bf87cb35b0b8580c78b670d42a6fcc3e8159c3fb
V: 12- 		67f5da0a644cafa5c8cc402603e712077aefaa0931fb149baa76c7c76f263557
V: 312 		6890f329c58d6ac25bb2c3f11b64eafe696eadc6a74f1aed4004e2c059edcaee
V: 312 		68c99e5e1fd4ce68340f57aef5a7a4f5d3e71f220da59d3e1f2901b053081d3a
V: 12- 		68d008916bb8901b7133d7583335ad09683c83868f3a2de3434509507a3dc765
V: 221 		69253a9338e96fd06ef96cd15ebafed74458e6f69e3608110bfb699a8f961ca8
V: 12- 		694fa38a351bafff3246a025e16a17520daf87fbe63b8629d1a314df5b065071
V: 132 		6a259b7b2936def26d6bb3c42467069245f3826e9038f3796cfb430e608a6449
V: 312 		6a77aeaa32d3ce8e5ad448000b53b808ad77985f842e7615921bf83fc0b48fde
V: 213 		6b77c4a842c075bcf771848da51f8f19e98ab82e552631d48e321412761f2594
V: 311 		6baa15549d0ca86926d2221b7179a27e98e99d36852065158d4131e14a1b9d1c
V: 123 		6bcf411bba4bcb9a81538fc03689b348689168afcc4138f02aa5eac285c7460c
V: 123 		6c82a14373183cf5885b341d1d0b175fa303111b9d03351ed16c9d80ea5e28e5
V: 1-- 		6c929ef065c39547f982f5e9b34557133632fca2c80b9f8a51a36ac35826642f
V: 213 		6dbdd3bc16782dbd85c2c5ba31d1a9d8b68a1b37bb685d21903436604f975d12
V: 312 		6ef63ed76776bc12cbc5a9666bbe7c808e1b241785c426a5ac20074b4cf88780
V: 312 		6f7cfddad4889afe0dec9fb2c8ee96df1ed47d39501a273a39a95fc4845746e5
V: 123 		6fdca1d383a1c58d9b4633beee3c6e07819b2c1e3c7c80d7a02bc2c0cddbf479
V: 123 		70b49527966ca5d45f3af3c6274d336e1fbc039e132cea8ec3f6a52a8c5578c0
V: 12- 		715f9881f063743bcc1518d0185c28257d240b1d722f5b1f08727b7d20767b86
V: 123 		718f3303be635cf4cda3563f4df01cb853d56c3e0309a4e8db5202b15aa21231
V: 231 		71fcb7bbec49342b19aa948df5b6d89b0f97afa57e096d201c0ea9985ee100ba
V: 1-- 		726f1d950f9a4d1a6fbdcce261c0aa77d2a3964f0ad4095680b6a13abfa00430
V: 123 		7271eaba52ec309039b2e4f11d740770c23458bdfd3ac460151053f6e885d9b7
V: 312 		727f4f702cc11f66d751859557913e70cd0a04769196ca2d0f04b5ff1354827e
V: 123 		72a9692f8fcf79e27b496e54caa66798cd449bfa241bd4690ad189a2a597b73c
V: 12- 		73a1f45ce3841406cd6f46002190ce21bc66182afe93afc270d91e0438152669
V: 21- 		77185664e3075889761ea21b68ac15c146d70684459e6db055241b6d86b4700f
V: 123 		7973019b83c08997f200709bd27643bd5caea78c54744270fc81c7c56d6a1265
V: 132 		7ab6e640a3f1b4e68be30430f516bb7505df54b41b111f4cbb495c762a3e53d3
V: 123 		7cad6f7080ef190948661f93fbfc259502e128e3d97d6464cf9edd6f1337e668
V: 21- 		7d3979fe4b6fe59112229ced4af48db9a32fe8ac3bbecfa3a5907b9af05dd046
V: 1-- 		7d4bbe9276c0856fb661c07781d90d9fd781c46806a74412a184d06eaf672051
V: -12 		7d7a2e6dc0c2b5ef52004d94657d67336aaba1ab5f2ed98695e3fc74a49f023d
V: 213 		7ecf49f8f42b21e54b7141e336f25786f8636acdbc443ea780ba1b339e45949f
V: 21- 		8015da6f012824807a403b5802ac5e9813d6f537ffd481254f2d92ed7382d28a
V: 12- 		80bd0a963d294707e64ca96c1b6d57c1d6f183b1a95ccbfabd480f7247f6eba0
V: 21- 		82cd7227af0e7de7595ecd3e4227a28ebcd91b625a9153ea7648806d64afb70d
V: 213 		8335a138331c29404529ed19e0f6f176776d43b155390838c0c08c0ae6887202
V: 123 		853c06e0d2a40f45966515f99208fbfc0ac78569781c751d321749e16d2b4d6f
V: 123 		8609673b0cf6d408d609e25e0f022663358b5cb1d044c7b0487475f63c0290df
V: 123 		8675ae4cd8602aeb9f8ae1c6a50e0a8112dbee7121aeb95ba1fc0187a401145c
V: --1 		86a4211d526fecfe2e84aa0ea72491f24dc5ae21604a1646032c32b797b8dcc0
V: 123 		87986c96042d1a5544cc0a5cf5eaf0f2e0f068043dee46a66cc60594efb4f667
V: 132 		87e2f4dbd51ca911eca0e3273b3577938602ca9942d2377643d97abfc7ae5f06
V: 213 		89429169e48c070f1671fab2375dca90acc3e51b27f2426defc3d12a2d6c3083
V: 213 		89551f32c9ca88b3b9cbca19d2391289317166985f38415c0916368a0743aaa7
V: 21- 		898047d1318c33a8fca93949a9cd73028dacc3bd9bb278f885fc2e1dfdd7b6c2
V: 123 		8adbe0ef9c6dc52da3099d148d2cb021c7647850452daf32591d47499ba7d06e
V: 321 		8ae5b33d2e4b54cddba0cb3a5e9f49b5a620d46be7d066475c515e85659725f0
V: 123 		8b0265115f7e570a5db69c5c20cd07f71833b61bf4d0565a802e9be8157fe3a0
V: 111 		8b3963d2990d51e4e44007aaa926f8bbc20925b2a009b139c9c263b3756fafd9
V: 123 		8b6058450a341fadc225fb78b245bceb23ca3d0467281d3d5a267bfa78682a58
V: 123 		8b8e59301322148d03780b469628f9fb5c99a54cc8a5d019d337594f50334648
V: 112 		8cc7385878726fe1657e974d2aaf39b2bd6b9ce0643b27cb964216c2497c5906
V: 213 		8dbec8cbc39a82a79364903a0b9e9350b96e82b53db2201474709b4aae598c52
V: 123 		8e9be0b2c7e0bda81d1df3a2c8732341db9ef65181845a8443a6530763a13ac9
V: 213 		8f4bd88c1fdb220ffaa5e47c4cf19c5b9154ea6975c20b9678ad2feb2c6beba2
V: 212 		90190fe3b13ffc8948c125ff0f60b14521037311c9189adec664295a73fff042
V: 123 		911fa87312f6f352bd860119d04a6db02dea695bd2ce49d4ddac972db74e052e
V: 132 		933798080244fd8ef78b95669f1b8ff58c568066109609be73c0ff50da9c1403
V: 21- 		9339eabc0921963653c92a7b8080416d34f0626639ac866b956d14007f8efb29
V: 312 		942c5090a2fb3cf0442174650f4f4d7ab05daf23b9d7479c52aa084509f99770
V: 213 		94c08766a9a28a8c6ed05f4762ea9244937ef854bac5ec43aba018ca614a3af3
V: 132 		94cc7ea28c19c870d72d71d3902dc18941283c5306fa79211325231618e328e5
V: 312 		94d3818039daadb2c9c38ac37a5751065b2e14b5cdedf76d6203bc2151867b42
V: 123 		9568fda0372eb0c7080942b9601daf4813cb3d9a10354970031cc495283b59a4
V: 213 		9599917cb21d167d94dfde328110920379f32089dd6bda5a3c6cc929790dcd7e
V: 123 		95d42bbdba165fac584d7a023f14b04c067dd50e5a49b2d87295cbfdd90aa031
V: 132 		9624c525491eeec9d4aa4f6c19158bd2294d7a3e0fe574c755190c57ff9d5f97
V: 312 		96f2d050a93f965718c81b147d641dc7e572ca0e6d608fad51b572e88464f353
V: 213 		9735e477c428faae71a096907fd1dc45e42b2a1882ec9da202c5c3fba6af1c6e
V: 123 		97a3cc84346469487abb3d196e8b49d0f16def5729de4a9c44300bb428d03ea2
V: 21- 		98784b618ba4cd30b0a26a13af4176f9d2112e351c3e3d08b810e35f0ead398e
V: 11- 		9a8c2a80288c338627958b5a50e506029d3e96824853c3435f07a1e566133413
V: 123 		9aaf627a20e2d586e09a2bbfeb698613d3a25738bd8f64d023819ae9f7fc389c
V: 112 		9aea944a682516f42b1bd62460d7f896ec216e87304663ece44f633fe48f9f92
V: 122 		9beda73c549b7cb4ca01b7a8db10f5ffa5c3ebbcb8218084f90cbe04d4730f2a
V: 213 		9cc3003e2d627dc796c36c19a38ac3186a11174070e05d8389400b2d92df7c85
V: 123 		9d9bbe28788138a7f015e898a0651c1cc99ad5a619a11a6ee696470262e391d1
V: 132 		9deb321359b1c27c7d4401978762d7cbb763cd2466adcd2616889932176adb18
V: 212 		9ed112e6ecc78ca7a423323bd5808172272d6be047d483879a3b31c0d2a966b4
V: 312 		9f770ebea80ad766af2d812e7f76cd55e58e70824970d99806ec77966f3cabe5
V: --1 		9fb89328a4dcb3e1cd4e44e5ed16eeef886848c04201ac9637f165745ce620d0
V: 12- 		a152096d7841ef08c9bcbc972216eff89bc9f8e579703163d10fbe9dd6c05ed2
V: 123 		a15621aaeb2918e2597e7ad79a3252f159929d94436ecfaf238e0a157f02146a
V: 213 		a177d1020a3cf100b88252bf2148936ac71712a88c2e3cea4eceece8c11fad1d
V: -23 		a25e05f2e0c496b48f319ecc25cf7988c36b2a7ed8f8a8da2ab00fd33b09b20a
V: 213 		a36bc877cdc20cf4e945126c384521acfba2e78cca8fe1ff32f373d43c6d5c8f
V: 132 		a398c9d321c09ec98277d276e608e7fba03d96c7eecaca274f424927d190f242
V: 132 		a3a894e82dbb69aac15b1a2d33cdbf99f6fdbfeb07ae64100608c60b5738c11a
V: 12- 		a3b64a7c0276223a8d09090f7a6125b5799baabfeb5fcc6e8983d2345b761a67
V: 21- 		a608e439c3066a85334adeb8cd29b737e61941da09a709978b890a63e280f6e2
V: 123 		a6c0fe74f6f55a7e2baf0e74d7e06d33d7978a529c88ee3962a0e3d1207264f4
V: 132 		a7706cf7b8d9f55ae9780f783a86d1cc19429161aee817715d4bc3b1037201b3
V: 213 		a85db72a6101d86100d7fea4665c6fab62ebb1921db9005f0e2360140695e4cb
V: 123 		a877c667e85f5dcf8ca8695dbd2fd60e2af8d3674da7d8d54950501d8ccfcaa3
V: 132 		a9108479c0d72e43aacda736469f02d89523afbf66dcb472e65c4ba9b206c35f
V: 213 		aa283e6a88940b5b79a96e95e6959dbbf8c7b445c39ae66654ae3ae9d7698b05
V: 123 		ab035d7748da997e5dbd3c540f74ac999e67044ca8f877be15e00966850382c5
V: 12- 		abe8499378b99d67d93c977923756a3058df4421d7f6819b80b84e867b2fca45
V: 321 		ac9daf0b467bd515642570aefc37f40920b68457bd6dabd9a6f75dac054a691f
V: 123 		acf2af80e49aaed12b0013288ddc40d1f683e5c798c235103c682205cb60b17f
V: 231 		ad4fc9c1c5ab1952f164975d6fc6704aecdebc525117a5dcf9e8c4ee35800e9d
V: 123 		ae127beeb11a489939b9cc5a38982e01e1d979214bc60e14a3cbea6d1baebc41
V: 123 		ae25f352870a3ea58c2572ddde2b45f553c3b99e37c4e96ba2f3dda3f2d272cd
V: 132 		ae8fa469ade3c43715f2c19701f0aac09465a1bb81b78ef4964281e5973f9d58
V: 112 		ae99ae9321fb03e4c902911090515b6b5c6deea8cc40f2060b783e11098c2a81
V: 231 		ae9b092306ba821f419254f1536201ad1493f2cfda5557188e64a84329eaf1ce
V: 21- 		aeeba8d5168ce0569ae130bac641db856b1659043596766439138395b98260b2
V: 123 		af29f9546ced1ac3aa16adabdf7fd6e005da4f6f021013a6c717dab8716e3846
V: -1- 		af4b9ace9e65b666aa5137bf4caa6e7beba4d02b4170116873f5e0391b161788
V: 213 		b1396e634ada06b591ddfc584d8ad0a65816c89b7e6618a36bab23a0c97ac3ca
V: 123 		b21e46be0840fd0a15641324cd25dbeb0088e049de19a7b0dec28feeb4b2a059
V: 132 		b29fe228e34fc3452ff21bb8554d196a84ad7536d9faf0c6d4fed64dc43175ee
V: 123 		b2dc229eed54815baf6c52df078d5bf769ec5a7b46a319eb8d9c711581131d5e
V: 123 		b2ebd0a27783cc970ef4b5e3c46a80a8322ab3924ec6edd02ed7a01cca052fc5
V: 1-2 		b34fa72149e9fbab54ecaada8eacdf6099f0b1b76009092a33d941ceb096c5f7
V: 312 		b37e97b3c341c473434eee93fccbc5e674e32924816cb5b318ee7342b80664d8
V: 213 		b509eb9b63be1a3b72dcd840bf31f5480c6fadd467fe8d2ca344da6f5ac4c2d7
V: 213 		b539e4c35c4fcc507b0b2fa06eea127f7defda4dedcb0f4c89df6a35d7a1a6ef
V: 123 		b5e75e9814722bc9260705d0f107b98e95ef57f61e0b8219623961db0ab81649
V: 123 		b7119e31b96dd4bf6b54e53f22d73dca49170948695f06c33217a68fa3267497
V: 123 		b8471c8f57dc9d1801994f502502f85233c197c03c711ea2d67bdaddbccf59f1
V: 1-2 		b88d2f613e82a37535fb22bc405dade669392a1978d26e7fd86d9119f65d9205
V: 123 		b8f5adf2b50d26993e2703f1e64f608ce4c5ff9a4acc2625324d711982a7de46
V: 123 		b91cb5e5682f44e40101c6e7a3c8e237bad345fdeae80319e1832f45c79ef689
V: 12- 		b95443eb5500e19261e994696bfe03e4594c7622c9499411b5499f91e14c0600
V: 132 		b9f0586bd0809a572e50a4629c61c72095b7d1841fed49add5fbe7cf4b65e99a
V: 1-2 		bb6fd3372054fd1b8dd753cfaf4dcdce8fad3f0a4f4b97ac7397523421fb8bab
V: 123 		bce7d264f2f70ae309c2ebe1e220fcd4d3162d327b3e26f5a2805ba00d1d4652
V: 312 		bd0573379d68d127d6d5ad9a4d88cc6ebdad6f190f5e9a43c19f10074d0fc5ba
V: 12- 		bed7135bfa311a995d6373c6fb4835e3c330a8d49046b37957a8139ff27de8c7
V: 213 		bf9b63ef0d75b73c65bc77df1d73eb29b34c2f5643f08d967ecb5c2a8f51be6f
V: 123 		c269c62582818f97980cd1eaf12c523d5313c9cdca45c7bb9e12d246241c6517
V: 12- 		c291fc46b07b98b0802ccc2b13d4468936a58a7f463abd354abcf15677c6fd9c
V: 112 		c3845c938f17f8664d340e0e566252653feb81f8df71b09aabee7a3e2d01176c
V: 12- 		c3f705b1ea96085d1bcb6e3bc9da713428ba421f201b92de3c768652a23ad554
V: 123 		c4caadc97cd6826f4ac463e521d523e5b92c7d98bc535c9e3304fb11a46acf0d
V: 123 		c51cc70178063d6dcf7c105d4bc5dbe445af5d56649d7cea7fb40330dc6594bd
V: 123 		c9021507c46f420fdec4cbddb848a0ef61201a0ed6cc2cdff7797b0649c7ad75
V: 231 		ca552b42e4b83128a17a0ad4fa7908e067fdc9eaf772b4d29a49975154d112ae
V: 21- 		cbd2b3ca919017627024ac9abf9a6597b847379216806a7d07168d13d4989c93
V: 312 		cc6b661578ed565f345bef08c0eb53877284dd191c61415eabcc4605337da63d
V: 21- 		ce18b0525dc03ed4b3f44e36bd6ab41042e8eb7f9085d699b9b7afa623f8d6de
V: 123 		ce20a982f265eee66e4063066171026778fab69477e072c6bae6b3df62c186a4
V: 213 		cf0220305fed80fcde3c0e757b6a6a512b4cb6d144c80f139f362308826aa44a
V: 123 		cf9d0f9971479f2407e949207581a1c5c03e8c91cf28ba2a53b4e1aa517c1c1c
V: 21- 		cfacd7a4e0a4089d26c3f4694936295cd05369ffdd5cbb8df1e76d3118fee0d5
V: 123 		cfcf2a0206af25e9547e1bbe32572fddb559045b0ad5eb7f26dfad5f246e078a
V: 123 		d04c02c7c380c21d06d937b610c8f189a71a81b70018bcadec810db4bb6d65ea
V: 123 		d0ccaa4c72a9236bcb918abfc41e52191e67147007df68cdb84c0d8a38272660
V: --1 		d14ec537b77e9d9e5aba2069ff63fe956539329ae61172a29a91dcd6026ee253
V: 312 		d214355acc2848cd5420440ffe1c72c1248156ff99cd673847ba96b7bfe98f6a
V: 213 		d3a15e2bea4a30e81c1b564041a42a37a8e979e013273265016431ed642418ca
V: 231 		d403045ac404a6ba3d0305d199321799336ac0b085c37ed7f13d2f6bec19236f
V: 12- 		d5286b70ce1676e8398b687a7b213694189119fdab411206835fd634ee0f0e44
V: --1 		d889176b6c6b5e8920047784b37af78e7eb34a54f58f86825a7fe4b437603bc1
V: -12 		d8965591c6c6c38ef3a01d5d3552936f3af4eddb14c1e13c21d869c6c873d05d
V: 132 		d97a2ee43c36d0608897b9556683337278ea4b6c5b396ccd8d442c76e4ae0319
V: 231 		d9e2f1992d8cb01f6793a277ec0a1e2d45f4300a21483c761db9f3f8eb88b4bc
V: 213 		dc7c7fbeee5f22aa8719c1833f67f98e705422620b5bf276a04df45733c72c84
V: 213 		ddb5ff4eeb986c977783cf312ec8f3107139c0cd86d80eea7b2f325fe5e65f65
V: 21- 		dddce274a96e1ac30aa80cb30c049dc5f0d393593f4c60e99714650d636da4d7
V: 213 		de1e7febc382b1ee4c84ab7782288511dd9a7ae358d666b47e6dbcb8a2d3c055
V: 123 		de5b71248ba367cae040de25b48f0cdc1c56f4351602dba15c502b431c996026
V: 213 		de706c69531b755ec0c026248783631c81b9f6023d69b58921dffa6d3525a5a3
V: 213 		de7c81565ce152fba00f5a46ed6579448058e32f7d311cfcf27a1d76da05722e
V: 123 		e058801f218293069048851ca82506864c1c285273b5e362bcb2056c7fd090b8
V: 213 		e06e6e4877c1c392d30454d3398095e44f865387a49c5f2bdd3f1ff3cee3b7ce
V: 123 		e0b8ab4e850c7075c8b534ef88673f4640d82a98ed2db5adbd4e128954ce5c07
V: 21- 		e1cc8ef5a338c3f50c44080a70f0a8b791ed31d2116eaf9c3357804559d4c6fa
V: 123 		e2752a3d2a0c86da8e22413be5a5edd06bb02d80c13881315efa91ea81182a20
V: 213 		e281ef2d006f97260061c15163144b5ca0639a2c1b897c795cd7b63586626242
V: 123 		e28f6c11d69ae417a64daf9e98efce63bbbd62c1c7134521c279771a6f1dae9e
V: 123 		e29b30784137ffca3845c3c7b5b18de34df05ea84bcd17a3f5a33f689c72e845
V: 312 		e2aa7d30c97abcea8e343d928984cb28e8dabeae1a584ef55751dab9ef08532d
V: 123 		e35b5e03717b0f06dee06e3ffc9984f3e77befe60f81230d6272c8d4a4be4a1c
V: 11- 		e3991d49d38ac8240fb8d8b45cf3cb3af7be13d8a88b876c154873531a7d0799
V: 123 		e3e477fc3e0cd13c0be75318dbee64c7925083a9897bdb8cd640e73dc602ef06
V: 132 		e3f9c60bd252b8c0b9eaa96fdcab1522c4d903b9a7578a4596ef673d17dedaad
V: 1-2 		e48594777af1abc5bac04bf9b702d42c219da29ecca7572edc96797f86507615
V: 132 		e52a947812211f737d32d0e805d3361309af3a0b56b9930dd8fc64b627b4a215
V: 21- 		e54f33f2320aa7c96e3787d07cc9459d695cf0c64cb3cfd2a00a57a3a09588d8
V: 21- 		e7e975b429343fc2c9197c6cee4115af0c3466110bae87f88520ea26143fbf66
V: 12- 		e7f4fe6cf182814ff7e0e853f17ad04182b0ae9d3fa3e95deaecbc6420ebd884
V: 213 		e82dc083821d4d92aea12d9893202bd00324a09c125afc8c7b42b7822de99769
V: 123 		e83db18fd6d5a533a4372202f56f26593da7e78d683f207679e0321e7d810e24
V: 312 		ea25a79ade7661b510fcf3d4de9d5ef7a6afacf53ff0e7edd5f517fcf0140087
V: 312 		ea55fd1181e46db642d844b552609b0bc70a504206e8cbd221df129b9605b85e
V: 231 		ebbb69d10acf807b04ea3ef8b03ba2f330c8dc44a3cc44ecd4c9d0c32d2ec207
V: 11- 		ed4c4af3c0b4b9837803557012cc337d29b22315ff506d6bffe8d23a96fd7082
V: 123 		ed68287ce47f1d11d3667680f7cd05faed32d4e4c14139b44ccc23877c24b5df
V: 1-- 		ed78272c23a5498c209de1163fba0ded2a759af5b3546accccba7d28e1add6c8
V: 132 		ee6a39d8b7556d289490f9d3e267963df393f4aa5a2ccc9fd87d687cad3a329a
V: 213 		eed070681e99709fd9857bffc87e40bff11dc82a381fc84d30436674660fdd8c
V: 312 		f19ddbb5ff33e0994a90301976259e5c6f4a7bffe3d5806c64efaa5b52c58572
V: 113 		f205324b742f025fe8cfda8fc8730b1c800c4a235a65d768bd411f094f620aa0
V: 12- 		f3382decd4a15994eec4ded81207ef3d6711c9d35a7e443279a11cd9143d5f81
V: 321 		f36049c92168f4b84ee2a277a1b334e9fea760238e1de29a5dc80f8d8644179e
V: 213 		f3ccda62214e8f3b2dfc7e57adbd88045bf86c80d95025f622fe298b8f07b1f3
V: 231 		f5335fb7024a426f820224c0b528c63dd13cf28af19717d413db677004ab5048
V: 21- 		f7318083f0be023f5cd28a4f98bf8eb05e1b8b14170f85b2eea0ac9e7e65aa16
V: 113 		f7b2b5aab2f019ec80b60f4a19c86a303ca65b7f1e6ca1a681fc1d8aee916d79
V: --1 		f7e7051e5e95e507c81a9bbf83200947528952d507842c671e03647e0c653627
V: 213 		f7fd3f066e80282f1a34a0a84a9bcef750127c8e00ecf81e74626c2b86765337
V: 12- 		f816cad79f23b8ad6b3cadaca9e1712f9e05dde20a96e0fc42851ad69d5869f7
V: 113 		f81e0d6aa2d08b3d69855b0145c48929ca3bf69d1677a900d45e3a129351ca50
V: 213 		f825d6167d2602574be3761282775e95ee259ed60bca18d29061644f82117a37
V: 123 		f8d438be9d18262730d9c35be26db515c006929347a3be1674c877a3550b58f4
V: 21- 		f9cdf7e0a483a8f42e6e91117f732b6c8d2bb16d1db17fb258d162ad9dce3c5d
V: 123 		fa827f221e56f7dad17cacb415f84ed4a8196dbddf0083097b8a02093478a19c
V: 123 		fb387965d5a2f88312985cc5f849edebd0b852699d3e962a3d4477d4160b9a20
V: 21- 		fb785d2cfb8693eb8cb4d5b85b4bb17c2086411d21060c39ee0507c545a61fd0
V: 213 		fbefdd47e0cff685f6762f4ad053ef93f5022fdbcec624df0bfb95e4916475c4
V: 12- 		fbfedc3694e6b77336c7013cace38af00fce56b8fc2b289c00c49c659be2d348
V: 123 		fdb4ad53e864378686b17c8c41c5a782f9c6a33389560be5711746e569060984
V: 321 		ff43f433b0e59a87315fc9f1a6be479b93fed96647bfc8cb63a56dfa129a8028
V: 213 		ff5ecea0e0456e05fd16023ff5071bc00f476a64986d4a15a08b8931377088b0
